Using Copilot in RStudio
…
Rows: 131 Columns: 14
── Column specification ────────────────────────────────────────────────────────
Delimiter: ","
chr  (7): village, respondent_wall_type, memb_assoc, affect_conflicts, items...
dbl  (6): key_ID, no_membrs, years_liv, rooms, liv_count, no_meals
dttm (1): interview_date

ℹ Use `spec()` to retrieve the full column specification for this data.
ℹ Specify the column types or set `show_col_types = FALSE` to quiet this message.

safi

# A tibble: 131 × 14
   key_ID village  interview_date      no_membrs years_liv respondent_wall_type
    <dbl> <chr>    <dttm>                  <dbl>     <dbl> <chr>               
 1      1 God      2016-11-17 00:00:00         3         4 muddaub             
 2      1 God      2016-11-17 00:00:00         7         9 muddaub             
 3      3 God      2016-11-17 00:00:00        10        15 burntbricks         
 4      4 God      2016-11-17 00:00:00         7         6 burntbricks         
 5      5 God      2016-11-17 00:00:00         7        40 burntbricks         
 6      6 God      2016-11-17 00:00:00         3         3 muddaub             
 7      7 God      2016-11-17 00:00:00         6        38 muddaub             
 8      8 Chirodzo 2016-11-16 00:00:00        12        70 burntbricks         
 9      9 Chirodzo 2016-11-16 00:00:00         8         6 burntbricks         
10     10 Chirodzo 2016-12-16 00:00:00        12        23 burntbricks         
# ℹ 121 more rows
# ℹ 8 more variables: rooms <dbl>, memb_assoc <chr>, affect_conflicts <chr>,
#   liv_count <dbl>, items_owned <chr>, no_meals <dbl>, months_lack_food <chr>,
#   instanceID <chr>
…
Explorative Data Analysis using dplyr

selecting

The code select() we use to select columns

For example

#select interview_date, village, no_membrs, years_liv
select(safi, interview_date, village, no_membrs, years_liv)

# A tibble: 131 × 4
   interview_date      village  no_membrs years_liv
   <dttm>              <chr>        <dbl>     <dbl>
 1 2016-11-17 00:00:00 God              3         4
 2 2016-11-17 00:00:00 God              7         9
 3 2016-11-17 00:00:00 God             10        15
 4 2016-11-17 00:00:00 God              7         6
 5 2016-11-17 00:00:00 God              7        40
 6 2016-11-17 00:00:00 God              3         3
 7 2016-11-17 00:00:00 God              6        38
 8 2016-11-16 00:00:00 Chirodzo        12        70
 9 2016-11-16 00:00:00 Chirodzo         8         6
10 2016-12-16 00:00:00 Chirodzo        12        23
# ℹ 121 more rows

filtering

You can also choose rows based on their values using filter()

# filter for rows where village is "God"
filter(safi, village == "God")

# A tibble: 43 × 14
   key_ID village interview_date      no_membrs years_liv respondent_wall_type
    <dbl> <chr>   <dttm>                  <dbl>     <dbl> <chr>               
 1      1 God     2016-11-17 00:00:00         3         4 muddaub             
 2      1 God     2016-11-17 00:00:00         7         9 muddaub             
 3      3 God     2016-11-17 00:00:00        10        15 burntbricks         
 4      4 God     2016-11-17 00:00:00         7         6 burntbricks         
 5      5 God     2016-11-17 00:00:00         7        40 burntbricks         
 6      6 God     2016-11-17 00:00:00         3         3 muddaub             
 7      7 God     2016-11-17 00:00:00         6        38 muddaub             
 8     11 God     2016-11-21 00:00:00         6        20 sunbricks           
 9     12 God     2016-11-21 00:00:00         7        20 burntbricks         
10     13 God     2016-11-21 00:00:00         6         8 burntbricks         
# ℹ 33 more rows
# ℹ 8 more variables: rooms <dbl>, memb_assoc <chr>, affect_conflicts <chr>,
#   liv_count <dbl>, items_owned <chr>, no_meals <dbl>, months_lack_food <chr>,
#   instanceID <chr>

pipes

The pipe operator %>% is used to chain together multiple dplyr functions (for example selecting and filtering. You can also use |> instead of %>% if you prefer.

# filter village=God and select no_membrs and years_liv
safi %>% 
  filter(village == "God") %>% 
  select(no_membrs, years_liv)

# A tibble: 43 × 2
   no_membrs years_liv
       <dbl>     <dbl>
 1         3         4
 2         7         9
 3        10        15
 4         7         6
 5         7        40
 6         3         3
 7         6        38
 8         6        20
 9         7        20
10         6         8
# ℹ 33 more rows

mutating

We use mutate() to create new columns

#ratio of number of household members to number of rooms
safi %>% 
  mutate(ratio = no_membrs / rooms)

# A tibble: 131 × 15
   key_ID village  interview_date      no_membrs years_liv respondent_wall_type
    <dbl> <chr>    <dttm>                  <dbl>     <dbl> <chr>               
 1      1 God      2016-11-17 00:00:00         3         4 muddaub             
 2      1 God      2016-11-17 00:00:00         7         9 muddaub             
 3      3 God      2016-11-17 00:00:00        10        15 burntbricks         
 4      4 God      2016-11-17 00:00:00         7         6 burntbricks         
 5      5 God      2016-11-17 00:00:00         7        40 burntbricks         
 6      6 God      2016-11-17 00:00:00         3         3 muddaub             
 7      7 God      2016-11-17 00:00:00         6        38 muddaub             
 8      8 Chirodzo 2016-11-16 00:00:00        12        70 burntbricks         
 9      9 Chirodzo 2016-11-16 00:00:00         8         6 burntbricks         
10     10 Chirodzo 2016-12-16 00:00:00        12        23 burntbricks         
# ℹ 121 more rows
# ℹ 9 more variables: rooms <dbl>, memb_assoc <chr>, affect_conflicts <chr>,
#   liv_count <dbl>, items_owned <chr>, no_meals <dbl>, months_lack_food <chr>,
#   instanceID <chr>, ratio <dbl>

Let us research whether a member of an irrigation association had any effect on the ratio of household members to rooms. To look at this relationship, we remove data from our dataset where the respondent didn’t answer the question of whether they were a memnber of an irrigation association (recorded als “NULL” in the dataset)

# to remove these cases, we could use filter() to remove and people per room is ratio of number of household members to number of rooms 
safinew<-safi %>% 
  filter(!is.na(memb_assoc)) %>%
  mutate(people_per_room = no_membrs / rooms)
safinew

# A tibble: 131 × 15
   key_ID village  interview_date      no_membrs years_liv respondent_wall_type
    <dbl> <chr>    <dttm>                  <dbl>     <dbl> <chr>               
 1      1 God      2016-11-17 00:00:00         3         4 muddaub             
 2      1 God      2016-11-17 00:00:00         7         9 muddaub             
 3      3 God      2016-11-17 00:00:00        10        15 burntbricks         
 4      4 God      2016-11-17 00:00:00         7         6 burntbricks         
 5      5 God      2016-11-17 00:00:00         7        40 burntbricks         
 6      6 God      2016-11-17 00:00:00         3         3 muddaub             
 7      7 God      2016-11-17 00:00:00         6        38 muddaub             
 8      8 Chirodzo 2016-11-16 00:00:00        12        70 burntbricks         
 9      9 Chirodzo 2016-11-16 00:00:00         8         6 burntbricks         
10     10 Chirodzo 2016-12-16 00:00:00        12        23 burntbricks         
# ℹ 121 more rows
# ℹ 9 more variables: rooms <dbl>, memb_assoc <chr>, affect_conflicts <chr>,
#   liv_count <dbl>, items_owned <chr>, no_meals <dbl>, months_lack_food <chr>,
#   instanceID <chr>, people_per_room <dbl>
…
